%YAML 1.1
%TAG !u! tag:unity3d.com,2011:
--- !u!114 &11400000
MonoBehaviour:
  m_ObjectHideFlags: 0
  m_CorrespondingSourceObject: {fileID: 0}
  m_PrefabInstance: {fileID: 0}
  m_PrefabAsset: {fileID: 0}
  m_GameObject: {fileID: 0}
  m_Enabled: 1
  m_EditorHideFlags: 0
  m_Script: {fileID: 11500000, guid: e4f2dd8befe0f4a48b0c418911ffa5c0, type: 3}
  m_Name: Hit
  m_EditorClassIdentifier: 
  volumeMin: 1
  volumeMax: 1
  pitchMin: 1
  pitchMax: 1
  delay: 0.1
  audioClips:
  - {fileID: 8300000, guid: 74068c08db651d34f81de9affa61f55d, type: 3}
  - {fileID: 8300000, guid: 0e220b97baa73db4fab6fba879e1b024, type: 3}
  - {fileID: 8300000, guid: adaa56b2d3d8ca548a8467326825e514, type: 3}
  - {fileID: 8300000, guid: cef9a0102c9fe0c4fad4ebcf9ec72a45, type: 3}
  - {fileID: 8300000, guid: beefd4b7702d5874994c17328dc55b24, type: 3}
  - {fileID: 8300000, guid: 6e984feb46a04284e8c6ce4ebfd791d0, type: 3}
