%YAML 1.1
%TAG !u! tag:unity3d.com,2011:
--- !u!114 &11400000
MonoBehaviour:
  m_ObjectHideFlags: 0
  m_CorrespondingSourceObject: {fileID: 0}
  m_PrefabInstance: {fileID: 0}
  m_PrefabAsset: {fileID: 0}
  m_GameObject: {fileID: 0}
  m_Enabled: 1
  m_EditorHideFlags: 0
  m_Script: {fileID: 11500000, guid: e4f2dd8befe0f4a48b0c418911ffa5c0, type: 3}
  m_Name: Pull
  m_EditorClassIdentifier: 
  volumeMin: 1
  volumeMax: 1
  pitchMin: 1
  pitchMax: 1
  delay: 0.1
  audioClips:
  - {fileID: 8300000, guid: 51747ad9fd4c5564e873dbae5171e257, type: 3}
  - {fileID: 8300000, guid: bb1994a9358f0dc4782fe7535a9b384c, type: 3}
  - {fileID: 8300000, guid: 1958d9dc4683f204793b607c688da2d7, type: 3}
  - {fileID: 8300000, guid: 1b7c76f85bf1034498fefaa3ec8e600f, type: 3}
  - {fileID: 8300000, guid: d27732ffed6c52840bb268571f66913e, type: 3}
  - {fileID: 8300000, guid: cb68230ab01aab448b476ae3c84ee521, type: 3}
  - {fileID: 8300000, guid: b508660da1369664ea4fe1f9987c2150, type: 3}
  - {fileID: 8300000, guid: c424271f5a0b34042978648f19f2da8b, type: 3}
  - {fileID: 8300000, guid: a8aded2ee3b41f04eaad3a7b9f35e37f, type: 3}
  - {fileID: 8300000, guid: aa14911b4b4eb894085dfe426f46ba98, type: 3}
  - {fileID: 8300000, guid: 23932eb1f1528d34786ffa3381cb5922, type: 3}
  - {fileID: 8300000, guid: 7f632b7ba3e0d004899c46e9d8261c81, type: 3}
  - {fileID: 8300000, guid: 48e7e7e907cb4de4e89ebb5f2ecb5674, type: 3}
  - {fileID: 8300000, guid: 5930d7d2e705ea74ca30ee6652eb4571, type: 3}
  - {fileID: 8300000, guid: 7b9d6636c126a33489ada91fd402f036, type: 3}
  - {fileID: 8300000, guid: 4d23d5e2668be9f4b893c46b3802077f, type: 3}
