%YAML 1.1
%TAG !u! tag:unity3d.com,2011:
--- !u!114 &11400000
MonoBehaviour:
  m_ObjectHideFlags: 0
  m_CorrespondingSourceObject: {fileID: 0}
  m_PrefabInstance: {fileID: 0}
  m_PrefabAsset: {fileID: 0}
  m_GameObject: {fileID: 0}
  m_Enabled: 1
  m_EditorHideFlags: 0
  m_Script: {fileID: 11500000, guid: e4f2dd8befe0f4a48b0c418911ffa5c0, type: 3}
  m_Name: Release
  m_EditorClassIdentifier: 
  volumeMin: 1
  volumeMax: 1
  pitchMin: 1
  pitchMax: 1
  delay: 0.1
  audioClips:
  - {fileID: 8300000, guid: 5dea26c1298d78149af149b8bd73ff63, type: 3}
  - {fileID: 8300000, guid: f9d368eac27f70740bed52d36e0070d8, type: 3}
  - {fileID: 8300000, guid: c4212c0047b94924e8982fea80fb6547, type: 3}
  - {fileID: 8300000, guid: 220813dc74ddc714fa8b1db1e6416e27, type: 3}
  - {fileID: 8300000, guid: 0e4ff6f209abadf45b1c2403b1382cdf, type: 3}
  - {fileID: 8300000, guid: 0e1c54b10ce72f640a29eecbfced2363, type: 3}
  - {fileID: 8300000, guid: 0858be1afe7ac384698e357be00d670f, type: 3}
  - {fileID: 8300000, guid: 14d8c2eed68260f4d82a70201f2f19eb, type: 3}
  - {fileID: 8300000, guid: c2b473f54caf2504ba276643282bc0ab, type: 3}
