%YAML 1.1
%TAG !u! tag:unity3d.com,2011:
--- !u!1001 &3539115500609939980
PrefabInstance:
  m_ObjectHideFlags: 0
  serializedVersion: 2
  m_Modification:
    serializedVersion: 3
    m_TransformParent: {fileID: 0}
    m_Modifications:
    - target: {fileID: 1150025984400592425, guid: f5e9a8a003bc832449affde42ace02ab,
        type: 3}
      propertyPath: m_RootOrder
      value: 0
      objectReference: {fileID: 0}
    - target: {fileID: 1150025984400592425, guid: f5e9a8a003bc832449affde42ace02ab,
        type: 3}
      propertyPath: m_LocalPosition.x
      value: -16.194942
      objectReference: {fileID: 0}
    - target: {fileID: 1150025984400592425, guid: f5e9a8a003bc832449affde42ace02ab,
        type: 3}
      propertyPath: m_LocalPosition.y
      value: 4.5000005
      objectReference: {fileID: 0}
    - target: {fileID: 1150025984400592425, guid: f5e9a8a003bc832449affde42ace02ab,
        type: 3}
      propertyPath: m_LocalPosition.z
      value: 40.10473
      objectReference: {fileID: 0}
    - target: {fileID: 1150025984400592425, guid: f5e9a8a003bc832449affde42ace02ab,
        type: 3}
      propertyPath: m_LocalRotation.w
      value: 0.7071067
      objectReference: {fileID: 0}
    - target: {fileID: 1150025984400592425, guid: f5e9a8a003bc832449affde42ace02ab,
        type: 3}
      propertyPath: m_LocalRotation.x
      value: -0.7071068
      objectReference: {fileID: 0}
    - target: {fileID: 1150025984400592425, guid: f5e9a8a003bc832449affde42ace02ab,
        type: 3}
      propertyPath: m_LocalRotation.y
      value: 0
      objectReference: {fileID: 0}
    - target: {fileID: 1150025984400592425, guid: f5e9a8a003bc832449affde42ace02ab,
        type: 3}
      propertyPath: m_LocalRotation.z
      value: -0
      objectReference: {fileID: 0}
    - target: {fileID: 1150025984400592425, guid: f5e9a8a003bc832449affde42ace02ab,
        type: 3}
      propertyPath: m_LocalEulerAnglesHint.x
      value: 0
      objectReference: {fileID: 0}
    - target: {fileID: 1150025984400592425, guid: f5e9a8a003bc832449affde42ace02ab,
        type: 3}
      propertyPath: m_LocalEulerAnglesHint.y
      value: 0
      objectReference: {fileID: 0}
    - target: {fileID: 1150025984400592425, guid: f5e9a8a003bc832449affde42ace02ab,
        type: 3}
      propertyPath: m_LocalEulerAnglesHint.z
      value: 0
      objectReference: {fileID: 0}
    - target: {fileID: 2419059027631556838, guid: f5e9a8a003bc832449affde42ace02ab,
        type: 3}
      propertyPath: m_ReceiveGI
      value: 1
      objectReference: {fileID: 0}
    - target: {fileID: 2419059027631556838, guid: f5e9a8a003bc832449affde42ace02ab,
        type: 3}
      propertyPath: m_Materials.Array.data[2]
      value: 
      objectReference: {fileID: 2100000, guid: 30346adaa5bf16c42994ef19a0420037, type: 2}
    - target: {fileID: 4156522644884978746, guid: f5e9a8a003bc832449affde42ace02ab,
        type: 3}
      propertyPath: m_Name
      value: M-38 Blue Variant
      objectReference: {fileID: 0}
    m_RemovedComponents: []
    m_RemovedGameObjects: []
    m_AddedGameObjects: []
    m_AddedComponents: []
  m_SourcePrefab: {fileID: 100100000, guid: f5e9a8a003bc832449affde42ace02ab, type: 3}
