%YAML 1.1
%TAG !u! tag:unity3d.com,2011:
--- !u!21 &2100000
Material:
  serializedVersion: 8
  m_ObjectHideFlags: 0
  m_CorrespondingSourceObject: {fileID: 0}
  m_PrefabInstance: {fileID: 0}
  m_PrefabAsset: {fileID: 0}
  m_Name: Opaque
  m_Shader: {fileID: -6465566751694194690, guid: 7ced0476e93010c4b8b2442108833480,
    type: 3}
  m_Parent: {fileID: 0}
  m_ModifiedSerializedProperties: 0
  m_ValidKeywords: []
  m_InvalidKeywords: []
  m_LightmapFlags: 4
  m_EnableInstancingVariants: 1
  m_DoubleSidedGI: 1
  m_CustomRenderQueue: -1
  stringTagMap: {}
  disabledShaderPasses: []
  m_LockedProperties: 
  m_SavedProperties:
    serializedVersion: 3
    m_TexEnvs:
    - _ColorMask:
        m_Texture: {fileID: 0}
        m_Scale: {x: 1, y: 1}
        m_Offset: {x: 0, y: 0}
    - unity_Lightmaps:
        m_Texture: {fileID: 0}
        m_Scale: {x: 1, y: 1}
        m_Offset: {x: 0, y: 0}
    - unity_LightmapsInd:
        m_Texture: {fileID: 0}
        m_Scale: {x: 1, y: 1}
        m_Offset: {x: 0, y: 0}
    - unity_ShadowMasks:
        m_Texture: {fileID: 0}
        m_Scale: {x: 1, y: 1}
        m_Offset: {x: 0, y: 0}
    m_Ints: []
    m_Floats:
    - _Metallic: 0
    - _Opacity: 0.5
    - _Outline_Thickness: 0.002
    - _QueueControl: 0
    - _QueueOffset: 0
    - _Smoothness: 0
    m_Colors:
    - Color_217a2b0e2ec8437ba2257d2a2e815d0f: {r: 1, g: 0, b: 0, a: 0}
    - Color_b72ee4c8569c414787767960026243c3: {r: 1, g: 0, b: 0, a: 0.4627451}
    - _BaseColor: {r: 0, g: 0, b: 7.6829743, a: 0.39215687}
    - _BottomColor: {r: 3.0672052, g: 3.0672052, b: 3.0672052, a: 0.3921569}
    - _Color: {r: 1, g: 0.4039216, b: 0, a: 0.5}
    - _HighlightsColor: {r: 52.597584, g: 52.597584, b: 52.597584, a: 0.39215687}
    - _Opacity: {r: 0, g: 0, b: 0, a: 0}
    - _Outline_Color: {r: 0.092196465, g: 0, b: 1, a: 0}
    - _TopColor: {r: 0.62865525, g: 0.5582234, b: 1.4610292, a: 0.3921569}
  m_BuildTextureStacks: []
--- !u!114 &4901624244354152385
MonoBehaviour:
  m_ObjectHideFlags: 11
  m_CorrespondingSourceObject: {fileID: 0}
  m_PrefabInstance: {fileID: 0}
  m_PrefabAsset: {fileID: 0}
  m_GameObject: {fileID: 0}
  m_Enabled: 1
  m_EditorHideFlags: 0
  m_Script: {fileID: 11500000, guid: d0353a89b1f911e48b9e16bdc9f2e058, type: 3}
  m_Name: 
  m_EditorClassIdentifier: 
  version: 7
