%YAML 1.1
%TAG !u! tag:unity3d.com,2011:
--- !u!114 &11400000
MonoBehaviour:
  m_ObjectHideFlags: 0
  m_CorrespondingSourceObject: {fileID: 0}
  m_PrefabInstance: {fileID: 0}
  m_PrefabAsset: {fileID: 0}
  m_GameObject: {fileID: 0}
  m_Enabled: 1
  m_EditorHideFlags: 0
  m_Script: {fileID: 11500000, guid: e8ec755bf8f404d4281d06c066a84e98, type: 3}
  m_Name: Valve Knuckles Right
  m_EditorClassIdentifier: 
  controllerName: Valve
  controllerPrefab: {fileID: 827272834614812944, guid: abdb1588981774346bff4453f4835ea2,
    type: 3}
  controllerOffset: {x: 0, y: 0, z: 0}
  controllerRotationOffset: {x: 35, y: -180, z: 0}
  handPrefab: {fileID: 5553551016358545212, guid: 06b91e141d98e5346aee689f8994fa5d,
    type: 3}
  handOffset: {x: 0, y: 0, z: 0}
  handRotationOffset: {x: 0, y: 0, z: -90}
  turnHintText: Move joystick left/right to turn
  moveHintText: Move joystick foward/backwards to move
  teleportStartHintText: Move and hold joystick forward to aim teleport
  invalidTeleportHintText: Some objects you can't teleport on
  teleportHintText: Release joystick to teleport
  gripHintText: Press and hold grip to pick up item
