%YAML 1.1
%TAG !u! tag:unity3d.com,2011:
--- !u!114 &11400000
MonoBehaviour:
  m_ObjectHideFlags: 0
  m_CorrespondingSourceObject: {fileID: 0}
  m_PrefabInstance: {fileID: 0}
  m_PrefabAsset: {fileID: 0}
  m_GameObject: {fileID: 0}
  m_Enabled: 1
  m_EditorHideFlags: 0
  m_Script: {fileID: 11500000, guid: 191492db6e452eb468b95433ec162164, type: 3}
  m_Name: InteractionLayerSettings
  m_EditorClassIdentifier: 
  m_LayerNames:
  - Default
  - TransparentFX
  - Ignore Raycast
  - 
  - Water
  - UI
  - Teleport Area
  - 
  - PostProcessing
  - Ground(Floor0)
  - Floor1
  - Floor2
  - Simulation
  - 
  - SeeThrough
  - 
  - EditorOnly
  - 
  - Lights
  - 
  - 
  - 
  - 
  - Portal1
  - Portal2
  - 
  - 
  - 
  - 
  - 
  - 
  - PlayerOnly
