%YAML 1.1
%TAG !u! tag:unity3d.com,2011:
--- !u!1 &933174560358349637
GameObject:
  m_ObjectHideFlags: 0
  m_CorrespondingSourceObject: {fileID: 0}
  m_PrefabInstance: {fileID: 0}
  m_PrefabAsset: {fileID: 0}
  serializedVersion: 6
  m_Component:
  - component: {fileID: 933174560358349636}
  m_Layer: 0
  m_Name: Seat_Eat
  m_TagString: Untagged
  m_Icon: {fileID: 0}
  m_NavMeshLayer: 0
  m_StaticEditorFlags: 0
  m_IsActive: 1
--- !u!4 &933174560358349636
Transform:
  m_ObjectHideFlags: 0
  m_CorrespondingSourceObject: {fileID: 0}
  m_PrefabInstance: {fileID: 0}
  m_PrefabAsset: {fileID: 0}
  m_GameObject: {fileID: 933174560358349637}
  m_LocalRotation: {x: -0, y: -0, z: -0, w: 1}
  m_LocalPosition: {x: -36.692, y: 0.201, z: -29.832}
  m_LocalScale: {x: 1, y: 1, z: 1}
  m_Children:
  - {fileID: 9209565960858531003}
  - {fileID: 1912469195393955420}
  m_Father: {fileID: 0}
  m_RootOrder: 0
  m_LocalEulerAnglesHint: {x: 0, y: 0, z: 0}
--- !u!1001 &933174560348934377
PrefabInstance:
  m_ObjectHideFlags: 0
  serializedVersion: 2
  m_Modification:
    m_TransformParent: {fileID: 933174560358349636}
    m_Modifications:
    - target: {fileID: 8304002349627073618, guid: 3d28ea5bddc494342a5644e12fe2dfd2,
        type: 3}
      propertyPath: m_LocalPosition.x
      value: 0
      objectReference: {fileID: 0}
    - target: {fileID: 8304002349627073618, guid: 3d28ea5bddc494342a5644e12fe2dfd2,
        type: 3}
      propertyPath: m_LocalPosition.y
      value: 0
      objectReference: {fileID: 0}
    - target: {fileID: 8304002349627073618, guid: 3d28ea5bddc494342a5644e12fe2dfd2,
        type: 3}
      propertyPath: m_LocalPosition.z
      value: 0
      objectReference: {fileID: 0}
    - target: {fileID: 8304002349627073618, guid: 3d28ea5bddc494342a5644e12fe2dfd2,
        type: 3}
      propertyPath: m_LocalRotation.x
      value: -0
      objectReference: {fileID: 0}
    - target: {fileID: 8304002349627073618, guid: 3d28ea5bddc494342a5644e12fe2dfd2,
        type: 3}
      propertyPath: m_LocalRotation.y
      value: -0
      objectReference: {fileID: 0}
    - target: {fileID: 8304002349627073618, guid: 3d28ea5bddc494342a5644e12fe2dfd2,
        type: 3}
      propertyPath: m_LocalRotation.z
      value: -0
      objectReference: {fileID: 0}
    - target: {fileID: 8304002349627073618, guid: 3d28ea5bddc494342a5644e12fe2dfd2,
        type: 3}
      propertyPath: m_LocalRotation.w
      value: 1
      objectReference: {fileID: 0}
    - target: {fileID: 8304002349627073618, guid: 3d28ea5bddc494342a5644e12fe2dfd2,
        type: 3}
      propertyPath: m_RootOrder
      value: 0
      objectReference: {fileID: 0}
    - target: {fileID: 8304002349627073618, guid: 3d28ea5bddc494342a5644e12fe2dfd2,
        type: 3}
      propertyPath: m_LocalEulerAnglesHint.x
      value: 0
      objectReference: {fileID: 0}
    - target: {fileID: 8304002349627073618, guid: 3d28ea5bddc494342a5644e12fe2dfd2,
        type: 3}
      propertyPath: m_LocalEulerAnglesHint.y
      value: 0
      objectReference: {fileID: 0}
    - target: {fileID: 8304002349627073618, guid: 3d28ea5bddc494342a5644e12fe2dfd2,
        type: 3}
      propertyPath: m_LocalEulerAnglesHint.z
      value: 0
      objectReference: {fileID: 0}
    - target: {fileID: 8304002349627073647, guid: 3d28ea5bddc494342a5644e12fe2dfd2,
        type: 3}
      propertyPath: m_Name
      value: Dude_goes_here,rot&pos=0
      objectReference: {fileID: 0}
    - target: {fileID: 8304002349627073647, guid: 3d28ea5bddc494342a5644e12fe2dfd2,
        type: 3}
      propertyPath: m_IsActive
      value: 0
      objectReference: {fileID: 0}
    m_RemovedComponents: []
  m_SourcePrefab: {fileID: 100100000, guid: 3d28ea5bddc494342a5644e12fe2dfd2, type: 3}
--- !u!4 &9209565960858531003 stripped
Transform:
  m_CorrespondingSourceObject: {fileID: 8304002349627073618, guid: 3d28ea5bddc494342a5644e12fe2dfd2,
    type: 3}
  m_PrefabInstance: {fileID: 933174560348934377}
  m_PrefabAsset: {fileID: 0}
--- !u!1001 &933174561972096582
PrefabInstance:
  m_ObjectHideFlags: 0
  serializedVersion: 2
  m_Modification:
    m_TransformParent: {fileID: 933174560358349636}
    m_Modifications:
    - target: {fileID: 1619389073725749274, guid: df6e4f137d700bf45b4e4ceda2fc540b,
        type: 3}
      propertyPath: m_LocalPosition.x
      value: 0.01499939
      objectReference: {fileID: 0}
    - target: {fileID: 1619389073725749274, guid: df6e4f137d700bf45b4e4ceda2fc540b,
        type: 3}
      propertyPath: m_LocalPosition.y
      value: -0.13300052
      objectReference: {fileID: 0}
    - target: {fileID: 1619389073725749274, guid: df6e4f137d700bf45b4e4ceda2fc540b,
        type: 3}
      propertyPath: m_LocalPosition.z
      value: -0.1230011
      objectReference: {fileID: 0}
    - target: {fileID: 1619389073725749274, guid: df6e4f137d700bf45b4e4ceda2fc540b,
        type: 3}
      propertyPath: m_LocalRotation.x
      value: -0.7071068
      objectReference: {fileID: 0}
    - target: {fileID: 1619389073725749274, guid: df6e4f137d700bf45b4e4ceda2fc540b,
        type: 3}
      propertyPath: m_LocalRotation.y
      value: -0
      objectReference: {fileID: 0}
    - target: {fileID: 1619389073725749274, guid: df6e4f137d700bf45b4e4ceda2fc540b,
        type: 3}
      propertyPath: m_LocalRotation.z
      value: -0
      objectReference: {fileID: 0}
    - target: {fileID: 1619389073725749274, guid: df6e4f137d700bf45b4e4ceda2fc540b,
        type: 3}
      propertyPath: m_LocalRotation.w
      value: 0.7071068
      objectReference: {fileID: 0}
    - target: {fileID: 1619389073725749274, guid: df6e4f137d700bf45b4e4ceda2fc540b,
        type: 3}
      propertyPath: m_RootOrder
      value: 1
      objectReference: {fileID: 0}
    - target: {fileID: 1619389073725749274, guid: df6e4f137d700bf45b4e4ceda2fc540b,
        type: 3}
      propertyPath: m_LocalEulerAnglesHint.x
      value: -90.00001
      objectReference: {fileID: 0}
    - target: {fileID: 1619389073725749274, guid: df6e4f137d700bf45b4e4ceda2fc540b,
        type: 3}
      propertyPath: m_LocalEulerAnglesHint.y
      value: 0
      objectReference: {fileID: 0}
    - target: {fileID: 1619389073725749274, guid: df6e4f137d700bf45b4e4ceda2fc540b,
        type: 3}
      propertyPath: m_LocalEulerAnglesHint.z
      value: 0
      objectReference: {fileID: 0}
    - target: {fileID: 1619389073725749274, guid: df6e4f137d700bf45b4e4ceda2fc540b,
        type: 3}
      propertyPath: m_LocalScale.y
      value: 1
      objectReference: {fileID: 0}
    - target: {fileID: 1619389073725749274, guid: df6e4f137d700bf45b4e4ceda2fc540b,
        type: 3}
      propertyPath: m_LocalScale.z
      value: 1
      objectReference: {fileID: 0}
    - target: {fileID: 2315518783261018633, guid: df6e4f137d700bf45b4e4ceda2fc540b,
        type: 3}
      propertyPath: m_Name
      value: M-41_Grey (1)
      objectReference: {fileID: 0}
    m_RemovedComponents: []
  m_SourcePrefab: {fileID: 100100000, guid: df6e4f137d700bf45b4e4ceda2fc540b, type: 3}
--- !u!4 &1912469195393955420 stripped
Transform:
  m_CorrespondingSourceObject: {fileID: 1619389073725749274, guid: df6e4f137d700bf45b4e4ceda2fc540b,
    type: 3}
  m_PrefabInstance: {fileID: 933174561972096582}
  m_PrefabAsset: {fileID: 0}
