%YAML 1.1
%TAG !u! tag:unity3d.com,2011:
--- !u!1 &1760168875302845405
GameObject:
  m_ObjectHideFlags: 0
  m_CorrespondingSourceObject: {fileID: 0}
  m_PrefabInstance: {fileID: 0}
  m_PrefabAsset: {fileID: 0}
  serializedVersion: 6
  m_Component:
  - component: {fileID: 1760168875302845394}
  m_Layer: 0
  m_Name: Seat_Aud_Alt
  m_TagString: Untagged
  m_Icon: {fileID: 0}
  m_NavMeshLayer: 0
  m_StaticEditorFlags: 4294967295
  m_IsActive: 1
--- !u!4 &1760168875302845394
Transform:
  m_ObjectHideFlags: 0
  m_CorrespondingSourceObject: {fileID: 0}
  m_PrefabInstance: {fileID: 0}
  m_PrefabAsset: {fileID: 0}
  m_GameObject: {fileID: 1760168875302845405}
  m_LocalRotation: {x: 0, y: 0, z: 0, w: 1}
  m_LocalPosition: {x: -42.46, y: 0.097, z: -29.861}
  m_LocalScale: {x: 1, y: 1, z: 1}
  m_Children:
  - {fileID: 1075535445258797918}
  m_Father: {fileID: 0}
  m_RootOrder: 0
  m_LocalEulerAnglesHint: {x: 0, y: 0, z: 0}
--- !u!1001 &1760168875002361736
PrefabInstance:
  m_ObjectHideFlags: 0
  serializedVersion: 2
  m_Modification:
    m_TransformParent: {fileID: 1760168875302845394}
    m_Modifications:
    - target: {fileID: 1621420720129635542, guid: 2cc2efb0a6ffcc144a3c63e9e40a3f45,
        type: 3}
      propertyPath: m_RootOrder
      value: 0
      objectReference: {fileID: 0}
    - target: {fileID: 1621420720129635542, guid: 2cc2efb0a6ffcc144a3c63e9e40a3f45,
        type: 3}
      propertyPath: m_LocalPosition.x
      value: -0.30800247
      objectReference: {fileID: 0}
    - target: {fileID: 1621420720129635542, guid: 2cc2efb0a6ffcc144a3c63e9e40a3f45,
        type: 3}
      propertyPath: m_LocalPosition.y
      value: -0.029
      objectReference: {fileID: 0}
    - target: {fileID: 1621420720129635542, guid: 2cc2efb0a6ffcc144a3c63e9e40a3f45,
        type: 3}
      propertyPath: m_LocalPosition.z
      value: -0.22500038
      objectReference: {fileID: 0}
    - target: {fileID: 1621420720129635542, guid: 2cc2efb0a6ffcc144a3c63e9e40a3f45,
        type: 3}
      propertyPath: m_LocalRotation.w
      value: 0.7071067
      objectReference: {fileID: 0}
    - target: {fileID: 1621420720129635542, guid: 2cc2efb0a6ffcc144a3c63e9e40a3f45,
        type: 3}
      propertyPath: m_LocalRotation.x
      value: -0.7071068
      objectReference: {fileID: 0}
    - target: {fileID: 1621420720129635542, guid: 2cc2efb0a6ffcc144a3c63e9e40a3f45,
        type: 3}
      propertyPath: m_LocalRotation.y
      value: -0
      objectReference: {fileID: 0}
    - target: {fileID: 1621420720129635542, guid: 2cc2efb0a6ffcc144a3c63e9e40a3f45,
        type: 3}
      propertyPath: m_LocalRotation.z
      value: -0
      objectReference: {fileID: 0}
    - target: {fileID: 1621420720129635542, guid: 2cc2efb0a6ffcc144a3c63e9e40a3f45,
        type: 3}
      propertyPath: m_LocalEulerAnglesHint.x
      value: 0
      objectReference: {fileID: 0}
    - target: {fileID: 1621420720129635542, guid: 2cc2efb0a6ffcc144a3c63e9e40a3f45,
        type: 3}
      propertyPath: m_LocalEulerAnglesHint.y
      value: 0
      objectReference: {fileID: 0}
    - target: {fileID: 1621420720129635542, guid: 2cc2efb0a6ffcc144a3c63e9e40a3f45,
        type: 3}
      propertyPath: m_LocalEulerAnglesHint.z
      value: 0
      objectReference: {fileID: 0}
    - target: {fileID: 6585854488706943450, guid: 2cc2efb0a6ffcc144a3c63e9e40a3f45,
        type: 3}
      propertyPath: m_Name
      value: M-01.2_aluseta_staatiline
      objectReference: {fileID: 0}
    - target: {fileID: 6585854488706943450, guid: 2cc2efb0a6ffcc144a3c63e9e40a3f45,
        type: 3}
      propertyPath: m_IsActive
      value: 1
      objectReference: {fileID: 0}
    - target: {fileID: 6585854488706943450, guid: 2cc2efb0a6ffcc144a3c63e9e40a3f45,
        type: 3}
      propertyPath: m_StaticEditorFlags
      value: 4294967295
      objectReference: {fileID: 0}
    m_RemovedComponents: []
  m_SourcePrefab: {fileID: 100100000, guid: 2cc2efb0a6ffcc144a3c63e9e40a3f45, type: 3}
--- !u!4 &1075535445258797918 stripped
Transform:
  m_CorrespondingSourceObject: {fileID: 1621420720129635542, guid: 2cc2efb0a6ffcc144a3c63e9e40a3f45,
    type: 3}
  m_PrefabInstance: {fileID: 1760168875002361736}
  m_PrefabAsset: {fileID: 0}
