%YAML 1.1
%TAG !u! tag:unity3d.com,2011:
--- !u!1001 &7380820197548780037
PrefabInstance:
  m_ObjectHideFlags: 0
  serializedVersion: 2
  m_Modification:
    m_TransformParent: {fileID: 0}
    m_Modifications:
    - target: {fileID: 2865866712223786086, guid: 4cdcea5f4ff0e46498c874d2b01d07fa,
        type: 3}
      propertyPath: m_Materials.Array.data[0]
      value: 
      objectReference: {fileID: 2100000, guid: b30ef486ba0946b4b8641a5665cadb7b, type: 2}
    - target: {fileID: 5495700473640977372, guid: 4cdcea5f4ff0e46498c874d2b01d07fa,
        type: 3}
      propertyPath: m_RootOrder
      value: 0
      objectReference: {fileID: 0}
    - target: {fileID: 5495700473640977372, guid: 4cdcea5f4ff0e46498c874d2b01d07fa,
        type: 3}
      propertyPath: m_LocalScale.x
      value: 0.41
      objectReference: {fileID: 0}
    - target: {fileID: 5495700473640977372, guid: 4cdcea5f4ff0e46498c874d2b01d07fa,
        type: 3}
      propertyPath: m_LocalScale.y
      value: 0.33317593
      objectReference: {fileID: 0}
    - target: {fileID: 5495700473640977372, guid: 4cdcea5f4ff0e46498c874d2b01d07fa,
        type: 3}
      propertyPath: m_LocalScale.z
      value: 0.06
      objectReference: {fileID: 0}
    - target: {fileID: 5495700473640977372, guid: 4cdcea5f4ff0e46498c874d2b01d07fa,
        type: 3}
      propertyPath: m_LocalPosition.x
      value: 1.744
      objectReference: {fileID: 0}
    - target: {fileID: 5495700473640977372, guid: 4cdcea5f4ff0e46498c874d2b01d07fa,
        type: 3}
      propertyPath: m_LocalPosition.y
      value: 1.73
      objectReference: {fileID: 0}
    - target: {fileID: 5495700473640977372, guid: 4cdcea5f4ff0e46498c874d2b01d07fa,
        type: 3}
      propertyPath: m_LocalPosition.z
      value: -1.107
      objectReference: {fileID: 0}
    - target: {fileID: 5495700473640977372, guid: 4cdcea5f4ff0e46498c874d2b01d07fa,
        type: 3}
      propertyPath: m_LocalRotation.w
      value: 0
      objectReference: {fileID: 0}
    - target: {fileID: 5495700473640977372, guid: 4cdcea5f4ff0e46498c874d2b01d07fa,
        type: 3}
      propertyPath: m_LocalRotation.x
      value: 0.9925462
      objectReference: {fileID: 0}
    - target: {fileID: 5495700473640977372, guid: 4cdcea5f4ff0e46498c874d2b01d07fa,
        type: 3}
      propertyPath: m_LocalRotation.y
      value: 0
      objectReference: {fileID: 0}
    - target: {fileID: 5495700473640977372, guid: 4cdcea5f4ff0e46498c874d2b01d07fa,
        type: 3}
      propertyPath: m_LocalRotation.z
      value: -0.12186928
      objectReference: {fileID: 0}
    - target: {fileID: 5495700473640977372, guid: 4cdcea5f4ff0e46498c874d2b01d07fa,
        type: 3}
      propertyPath: m_LocalEulerAnglesHint.x
      value: 180
      objectReference: {fileID: 0}
    - target: {fileID: 5495700473640977372, guid: 4cdcea5f4ff0e46498c874d2b01d07fa,
        type: 3}
      propertyPath: m_LocalEulerAnglesHint.y
      value: 14
      objectReference: {fileID: 0}
    - target: {fileID: 5495700473640977372, guid: 4cdcea5f4ff0e46498c874d2b01d07fa,
        type: 3}
      propertyPath: m_LocalEulerAnglesHint.z
      value: 0
      objectReference: {fileID: 0}
    - target: {fileID: 7397545820660490822, guid: 4cdcea5f4ff0e46498c874d2b01d07fa,
        type: 3}
      propertyPath: m_Name
      value: Door_Alt
      objectReference: {fileID: 0}
    - target: {fileID: 9121039589996294814, guid: 4cdcea5f4ff0e46498c874d2b01d07fa,
        type: 3}
      propertyPath: m_Materials.Array.data[0]
      value: 
      objectReference: {fileID: 2100000, guid: a7f0d297d4e99b94e90733de6b41ebb7, type: 2}
    m_RemovedComponents: []
  m_SourcePrefab: {fileID: 100100000, guid: 4cdcea5f4ff0e46498c874d2b01d07fa, type: 3}
