%YAML 1.1
%TAG !u! tag:unity3d.com,2011:
--- !u!78 &1
TagManager:
  serializedVersion: 2
  tags:
  - Door
  - MenuHand
  - NetworkHide
  - NetworkHideOther
  - Treasure
  - Teleport
  - SpawnPoint
  - SamplesInfoPanel
  - FxTemporaire
  - RoomLight
  layers:
  - Default
  - TransparentFX
  - Ignore Raycast
  - 
  - Water
  - UI
  - Teleport Area
  - IgnoreInteraction
  - PostProcessing
  - Ground(Floor0)
  - Floor1
  - Floor2
  - Simulation
  - Outlined Objects
  - SeeThrough
  - OverlayText
  - EditorOnly
  - Portal
  - Lights
  - Ball
  - Ignore Ball
  - Player
  - OnlyPortal
  - Portal1
  - Portal2
  - StencilPortal
  - Paintable
  - 
  - Door
  - TeleportOnly
  - MenuOnly
  - PlayerOnly
  m_SortingLayers:
  - name: Default
    uniqueID: 0
    locked: 0
