# 3ds Max Wavefront OBJ Exporter v0.99 - (c)2007 guruware
# File Created: 26.04.2021 17:47:45

newmtl locator
	Kd 0.8000 0.8000 0.8000
	Ks 0.2000 0.2000 0.2000
	Tr 0.0000
	d 1.0000
	Tf 0.0000 0.0000 0.0000
	Pr -1.5600
	Pm 0.0000
	Pc 0.0000
	Pcr 0.0000
	Ni 1.5000
	Ke 0.0000 0.0000 0.0000
	illum 2
	map_Kd F:\perforce\vr\steamvr\main\public\runtime\resources\rendermodels\locator_one_sided\locator.png
